tusken	ig88	axkva	sd_boss	sd_sub_1	sd_sub_2	sd_sub_3	exar_open_hand	exar_minder	exar_caretaker	exar_hate_fist	exar_exar_kun	echo_base_soldier_junk	echo_base_wampa_junk	echo_base_tauntaun_junk	echo_base_wampa_berserker	echo_base_generic_soldier	echo_base_rebel_soldier	echo_base_imperial_soldier	echo_base_sharpshooter
s	s	s	s	s	s	s	s	s	s	s	s	s	s	s	s	s	s	s	s
item_heroic_schematic_elite_gaffi_stick_01_01	item_heroic_ig_88_head_01_01	item_heroic_schematic_nightsister_hat_01_01	item_heroic_schematic_backpack_01_07	item_heroic_random_neck_01_06	item_heroic_random_bracelet_r_01_01	item_heroic_random_bracelet_l_01_01	st_pr_exar_kun_table	st_pr_exar_kun_brazier	schematic_exar_kun_torture_table_02_01	schematic_exar_kun_table_02_01	item_heroic_exar_kun_fresco_02_01	heroic_echo_at_at_junk_02_01	heroic_echo_wampa_junk_02_01	heroic_echo_tauntaun_junk_02_01	st_cn_hoth_wampa	st_pr_hoth_cable_box_01	st_cn_hoth_rebel_snow_trooper	st_cn_hoth_imperial_snowtrooper	weapon_a280_blaster_rifle
item_heroic_schematic_elite_gaffi_stick_01_01	item_heroic_ig_88_head_01_01	item_heroic_schematic_nightsister_hat_01_01	item_heroic_schematic_backpack_01_07	item_heroic_random_neck_01_06	item_heroic_random_bracelet_r_01_01	item_heroic_random_bracelet_l_01_01	st_pr_exar_kun_table	st_pr_exar_kun_brazier	schematic_exar_kun_torture_table_02_01	schematic_exar_kun_table_02_01	item_heroic_exar_kun_fresco_02_01	heroic_echo_at_at_junk_02_02	heroic_echo_wampa_junk_02_02	heroic_echo_tauntaun_junk_02_02		st_pr_hoth_cable_box_02			weapon_eweb_blaster_rifle
item_heroic_schematic_elite_tusken_rifle_01_01	item_heroic_schematic_saber_03_01	item_heroic_schematic_saber_03_01	item_heroic_random_neck_01_01	item_heroic_random_neck_01_07	item_heroic_random_bracelet_r_01_02	item_heroic_random_bracelet_l_01_02	st_pr_exar_kun_table	st_pr_exar_kun_brazier	schematic_exar_kun_torture_table_02_01	schematic_exar_kun_table_02_01	item_heroic_exar_kun_fresco_02_01	heroic_echo_at_at_junk_02_03	heroic_echo_wampa_junk_02_03	heroic_echo_tauntaun_junk_02_03		st_pr_hoth_cable_box_03			st_cn_hoth_imperial_atst
item_heroic_schematic_elite_tusken_rifle_01_01	item_heroic_schematic_saber_03_01	item_heroic_schematic_saber_03_01	item_heroic_random_neck_01_01	item_heroic_random_neck_01_07	item_heroic_random_bracelet_r_01_02	item_heroic_random_bracelet_l_01_02	st_pr_exar_kun_table	st_pr_exar_kun_brazier	schematic_exar_kun_torture_table_02_01	schematic_exar_kun_table_02_01	item_heroic_exar_kun_fresco_02_01	heroic_echo_at_at_junk_02_04	heroic_echo_wampa_junk_02_04	heroic_echo_tauntaun_junk_02_04		st_pr_hoth_crate_01			st_cn_hoth_imperial_atst
item_heroic_schematic_backpack_krayt_skull_01_01	item_heroic_random_ring_01_01	item_heroic_random_ring_01_01	item_heroic_schematic_backpack_01_08	item_heroic_random_neck_01_08	item_heroic_random_bracelet_r_01_03	item_heroic_random_bracelet_l_01_03	st_pr_exar_kun_table	st_pr_exar_kun_torch_01	schematic_exar_kun_torture_table_02_01	schematic_exar_kun_table_02_01	item_heroic_exar_kun_fresco_02_01	heroic_echo_at_at_junk_02_05				st_pr_hoth_crate_02			
item_heroic_schematic_backpack_krayt_skull_01_01	item_heroic_random_ring_01_01	item_heroic_random_ring_01_01	item_heroic_schematic_backpack_01_08	item_heroic_random_neck_01_08	item_heroic_random_bracelet_r_01_03	item_heroic_random_bracelet_l_01_03	st_pr_exar_kun_table	st_pr_exar_kun_torch_01	schematic_exar_kun_torture_table_02_01	schematic_exar_kun_table_02_01	item_heroic_exar_kun_fresco_02_01	heroic_echo_snow_speeder_junk_02_01				st_pr_hoth_crate_03			
item_heroic_random_ring_01_01	item_heroic_random_ring_01_02	item_heroic_random_ring_01_02	item_heroic_random_neck_01_02	item_schematic_polearm_heroic_sd_01_01	item_schematic_carbine_heroic_sd_01_01	item_schematic_pistol_heroic_sd_01_01	st_pr_exar_kun_table	st_pr_exar_kun_torch_01	schematic_exar_kun_torture_table_02_01	schematic_exar_kun_brazier_02_01	schematic_exar_kun_carbine_massassi_02_01	heroic_echo_snow_speeder_junk_02_02				st_pr_hoth_icicle_01			
item_heroic_random_ring_01_01	item_heroic_random_ring_01_02	item_heroic_random_ring_01_02	item_heroic_random_neck_01_02	item_schematic_polearm_heroic_sd_01_01	item_schematic_carbine_heroic_sd_01_01	item_schematic_pistol_heroic_sd_01_01	st_pr_exar_kun_table	st_pr_exar_kun_torch_01	schematic_exar_kun_torture_table_02_01	schematic_exar_kun_brazier_02_01	schematic_exar_kun_carbine_massassi_02_01	heroic_echo_snow_speeder_junk_02_03				st_pr_hoth_icicle_02			
item_heroic_random_ring_01_02	item_heroic_random_ring_01_03	item_heroic_random_ring_01_03	item_heroic_schematic_backpack_01_09	item_heroic_random_neck_01_09	item_heroic_random_bracelet_r_01_04	item_heroic_random_bracelet_l_01_04	st_pr_exar_kun_table	st_pr_exar_kun_torch_01	schematic_exar_kun_2h_sword_massassi_02_01	schematic_exar_kun_brazier_02_01	schematic_exar_kun_carbine_massassi_02_01	heroic_echo_snow_speeder_junk_02_04				st_pr_hoth_icicle_03			
item_heroic_random_ring_01_02	item_heroic_random_ring_01_03	item_heroic_random_ring_01_03	item_heroic_schematic_backpack_01_09	item_heroic_random_neck_01_09	item_heroic_random_bracelet_r_01_04	item_heroic_random_bracelet_l_01_04	st_pr_exar_kun_table	st_pr_exar_kun_torch_01	schematic_exar_kun_2h_sword_massassi_02_01	schematic_exar_kun_brazier_02_01	schematic_exar_kun_carbine_massassi_02_01	heroic_echo_snow_speeder_junk_02_05				st_pr_hoth_light_standing			
item_heroic_random_ring_01_03	item_heroic_random_ring_01_04	item_heroic_random_ring_01_04	item_heroic_random_neck_01_03	item_heroic_random_neck_01_10	item_heroic_random_bracelet_r_01_05	item_heroic_random_bracelet_l_01_05	st_pr_exar_kun_column	st_pr_exar_kun_torch_01	schematic_exar_kun_2h_sword_massassi_02_01	schematic_exar_kun_brazier_02_01	schematic_exar_kun_carbine_massassi_02_01					st_pr_hoth_scaffold			
item_heroic_random_ring_01_03	item_heroic_random_ring_01_04	item_heroic_random_ring_01_04	item_heroic_random_neck_01_03	item_heroic_random_neck_01_10	item_heroic_random_bracelet_r_01_05	item_heroic_random_bracelet_l_01_05	st_pr_exar_kun_column	st_pr_exar_kun_torch_01	schematic_exar_kun_2h_sword_massassi_02_01	schematic_exar_kun_brazier_02_01	schematic_exar_kun_carbine_massassi_02_01					st_pr_hoth_terminal_01			
item_heroic_random_ring_01_04	item_limited_use_schematic_commando_ice_gun_04_01	item_limited_use_schematic_commando_ice_gun_04_01	item_heroic_random_neck_01_04	item_heroic_random_neck_01_05	item_heroic_random_neck_01_11	item_heroic_random_neck_01_12	st_pr_exar_kun_column	st_pr_exar_kun_torch_01	schematic_exar_kun_2h_sword_massassi_02_01	st_cn_exar_kun_cultist	schematic_exar_kun_carbine_massassi_02_01					st_pr_hoth_toolbox			
item_heroic_random_ring_01_04	item_heroic_ig88_sm_generator	object/tangible/loot/quest/lance_nightsister_schematic.iff	item_heroic_random_neck_01_04	item_heroic_random_neck_01_05	item_heroic_random_neck_01_11	item_heroic_random_neck_01_12	st_pr_exar_kun_column	st_pr_exar_kun_torch_01	schematic_exar_kun_2h_sword_massassi_02_01	st_cn_exar_kun_cultist	schematic_exar_kun_carbine_massassi_02_01					st_pr_hoth_radio			
item_heroic_random_ring_01_01	item_heroic_ig88_wall_lamp	item_heroic_axkva_min_claw	item_limited_use_schematic_commando_ice_gun_04_01	item_schematic_polearm_heroic_sd_01_01	item_schematic_carbine_heroic_sd_01_01	item_schematic_pistol_heroic_sd_01_01	st_pr_exar_kun_column	st_pr_exar_kun_torch_02	st_pr_exar_kun_torture_table	item_limited_use_schematic_commando_ice_gun_04_01	item_limited_use_schematic_commando_ice_gun_04_01					st_pr_hoth_snow_trooper_gun			
item_heroic_random_ring_01_01		item_heroic_axkva_min_claw_light	item_heroic_destroyer_cooling_coil	item_schematic_polearm_heroic_sd_01_01	item_schematic_carbine_heroic_sd_01_01	item_schematic_pistol_heroic_sd_01_01	st_pr_exar_kun_column	st_pr_exar_kun_torch_02	st_pr_exar_kun_torture_table	item_heroic_exar_brazier	item_heroic_exar_brazier								
item_heroic_random_ring_01_02		item_heroic_axkva_min_crystal_s01	item_heroic_destroyer_power_transformer	item_limited_use_schematic_commando_ice_gun_04_01	item_limited_use_schematic_commando_ice_gun_04_01	item_limited_use_schematic_commando_ice_gun_04_01	st_pr_exar_kun_column	st_pr_exar_kun_torch_02	st_pr_exar_kun_torture_table	item_heroic_exar_claw_s01	item_heroic_exar_claw_s01								
item_heroic_random_ring_01_02		item_heroic_axkva_min_crystal_s02	item_heroic_destroyer_solar_console	item_heroic_destroyer_cooling_coil	item_heroic_destroyer_cooling_coil	item_heroic_destroyer_cooling_coil	st_pr_exar_kun_column_broken	st_pr_exar_kun_torch_02	st_pr_exar_kun_torture_table	item_heroic_exar_claw_s02	item_heroic_exar_claw_s02								
item_limited_use_schematic_commando_ice_gun_04_01		item_heroic_axkva_min_crystal_s03	item_heroic_destroyer_space_beacon	item_heroic_destroyer_power_transformer	item_heroic_destroyer_power_transformer	item_heroic_destroyer_power_transformer	st_pr_exar_kun_column_broken	st_pr_exar_kun_torch_02	st_pr_exar_kun_zapper	item_heroic_exar_roots_s01	item_heroic_exar_roots_s01								
item_heroic_tusken_meat_rack			item_deed_walker_06_02	item_heroic_destroyer_solar_console	item_heroic_destroyer_solar_console	item_heroic_destroyer_solar_console	item_limited_use_schematic_commando_ice_gun_04_01	item_limited_use_schematic_commando_ice_gun_04_01	st_pr_exar_kun_zapper	item_heroic_exar_roots_s02	item_heroic_exar_roots_s02								
item_heroic_tusken_shelves			item_deed_walker_06_02	item_heroic_destroyer_space_beacon	item_heroic_destroyer_space_beacon	item_heroic_destroyer_space_beacon	item_heroic_exar_brazier	item_heroic_exar_brazier	item_limited_use_schematic_commando_ice_gun_04_01	item_heroic_exar_roots_s03	item_heroic_exar_roots_s03								
item_heroic_tusken_stairs			item_deed_walker_06_02				item_heroic_exar_claw_s01	item_heroic_exar_claw_s01	item_heroic_exar_brazier	item_heroic_exar_roots_s04	item_heroic_exar_roots_s04								
item_heroic_tusken_vent_pillar							item_heroic_exar_claw_s02	item_heroic_exar_claw_s02	item_heroic_exar_claw_s01	item_heroic_exar_torch	item_heroic_exar_torch								
							item_heroic_exar_roots_s01	item_heroic_exar_roots_s01	item_heroic_exar_claw_s02										
							item_heroic_exar_roots_s02	item_heroic_exar_roots_s02	item_heroic_exar_roots_s01										
							item_heroic_exar_roots_s03	item_heroic_exar_roots_s03	item_heroic_exar_roots_s02										
							item_heroic_exar_roots_s04	item_heroic_exar_roots_s04	item_heroic_exar_roots_s03										
							item_heroic_exar_torch	item_heroic_exar_torch	item_heroic_exar_roots_s04										
									item_heroic_exar_torch										
